Chapter 5 XGBoost | Advanced Sports Data Analysis
…
xgb_grid <- grid_latin_hypercube(
  trees(),
  tree_depth(),
  min_n(),
  loss_reduction(),
  sample_size = sample_prop(),
  finalize(mtry(), game_train),
  learn_rate(),
  size = 30
)

xgb_grid

## # A tibble: 30 × 7
##    trees tree_depth min_n loss_reduction sample_size  mtry    learn_rate
##    <int>      <int> <int>          <dbl>       <dbl> <int>         <dbl>
##  1  1749         13     5        1.18e-3       0.581     4 0.0000000175 
##  2   262         10    34        2.21e-7       0.626     2 0.000000158  
##  3  1837         11    37        7.42e-9       0.825     4 0.00204      
##  4   524         12    28        3.06e-9       0.282     7 0.00000390   
##  5   981         15    29        9.62e-3       0.331     8 0.00000000421
##  6  1674          3     9        2.90e+1       0.517     9 0.000000400  
##  7  1210          8    31        2.12e-5       0.408     6 0.000266     
##  8  1912         12    25        8.83e-9       0.930     3 0.00961      
##  9   403          4    10        2.41e-8       0.439     9 0.00145      
## 10   170          8    38        6.28e-7       0.658     6 0.000138     
## # … with 20 more rows
…
So our grid has run on all of our validation samples, and what do we see?

collect_metrics(xgb_res)

## # A tibble: 60 × 13
##     mtry trees min_n tree_depth   learn_rate loss_reduction sample_size .metric
##    <int> <int> <int>      <int>        <dbl>          <dbl>       <dbl> <chr>  
##  1     9   555    13          1 0.00000138         0.110          0.575 rmse   
##  2     9   555    13          1 0.00000138         0.110          0.575 rsq    
##  3     5   103    15          2 0.00517            0.899          0.538 rmse   
##  4     5   103    15          2 0.00517            0.899          0.538 rsq    
##  5     1   683    39          2 0.00000263         0.000358       0.852 rmse   
##  6     1   683    39          2 0.00000263         0.000358       0.852 rsq    
##  7     9  1674     9          3 0.000000400       29.0            0.517 rmse   
##  8     9  1674     9          3 0.000000400       29.0            0.517 rsq    
##  9     2  1947    23          3 0.0000000107       4.30           0.947 rmse   
## 10     2  1947    23          3 0.0000000107       4.30           0.947 rsq    
## # … with 50 more rows, and 5 more variables: .estimator <chr>, mean <dbl>,
## #   n <int>, std_err <dbl>, .config <chr>
…
