Chapter 4 Decision trees and random forests | Advanced Sports Data Analysis
…
How well does the random forest algorithm do with Nebraska’s schedule in 2020-2021 prior to a month-long COVID break?

nu <- modelgames %>% filter(season == 2022, team_short_display_name == "Nebraska")

nupreds <- nu %>%
    bind_cols(predict(score_fit, nu))

nupreds %>% mutate(residual = team_score - .pred) %>% arrange(desc(residual)) %>% select(team_short_display_name, opponent_name, team_score, .pred, residual)

## # A tibble: 25 × 5
##    team_short_display_name opponent_name    team_score .pred residual
##    <chr>                   <chr>                 <dbl> <dbl>    <dbl>
##  1 Nebraska                NC State                100  74.3    25.7 
##  2 Nebraska                Kennesaw State           88  80.3     7.67
##  3 Nebraska                Michigan                 79  71.5     7.48
##  4 Nebraska                Minnesota                78  72.7     5.32
##  5 Nebraska                Michigan                 67  61.8     5.22
##  6 Nebraska                Indiana                  71  65.8     5.18
##  7 Nebraska                South Dakota             83  78.4     4.64
##  8 Nebraska                Ohio State               79  75.1     3.86
##  9 Nebraska                Sam Houston              74  70.3     3.67
## 10 Nebraska                Western Illinois         74  70.3     3.65
## # … with 15 more rows
…
