Chapter 6 Logistic Regression | Advanced Sports Data Analysis
…
log_fit <- 
  log_workflow %>% 
  fit(data = log_train)

6.3 Evaluating the fit

With logistic regression, there’s two things we’re looking at: The prediction and the probabilities. We can get those with two different fits and combine them together.

trainpredict <- log_fit %>% predict(new_data = log_train) %>%
  bind_cols(log_train)

trainpredict

## # A tibble: 44,006 × 11
##    .pred_class   game_id game_date  team_short_displa… opponent_short_di… season
##    <fct>           <int> <date>     <chr>              <chr>               <int>
##  1 L           401171532 2020-01-31 Presbyterian       SC Upstate           2020
##  2 L           401175909 2020-01-31 FAU                Western KY           2020
##  3 W           401168419 2020-02-13 Villanova          Marquette            2020
##  4 W           400916553 2016-12-23 Presbyterian       East Carolina        2017
##  5 W           401083261 2019-02-06 Marquette          St. John's           2019
##  6 L           401086619 2019-02-28 Maine              UMass Lowell         2019
##  7 L           401377774 2022-02-26 East Carolina      Tulsa                2022
##  8 L           400916936 2017-01-21 Samford            Chattanooga          2017
##  9 W           400915795 2016-12-23 BYU                CSU Bakersfield      2017
## 10 L           400917170 2017-02-15 N Illinois         Ball State           2017
## # … with 43,996 more rows, and 5 more variables:
## #   team_rolling_true_shooting_percentage <dbl>,
## #   opponent_rolling_true_shooting_percentage <dbl>,
## #   team_rolling_turnover_percentage <dbl>,
## #   opponent_rolling_turnover_percentage <dbl>, TeamResult <fct>

trainpredict <- log_fit %>% predict(new_data = log_train, type="prob") %>%
  bind_cols(trainpredict)

trainpredict

## # A tibble: 44,006 × 13
##    .pred_W .pred_L .pred_class   game_id game_date  team_short_display_name
##      <dbl>   <dbl> <fct>           <int> <date>     <chr>                  
##  1   0.447   0.553 L           401171532 2020-01-31 Presbyterian           
##  2   0.346   0.654 L           401175909 2020-01-31 FAU                    
##  3   0.533   0.467 W           401168419 2020-02-13 Villanova              
##  4   0.607   0.393 W           400916553 2016-12-23 Presbyterian           
##  5   0.535   0.465 W           401083261 2019-02-06 Marquette              
##  6   0.356   0.644 L           401086619 2019-02-28 Maine                  
##  7   0.346   0.654 L           401377774 2022-02-26 East Carolina          
##  8   0.464   0.536 L           400916936 2017-01-21 Samford                
##  9   0.642   0.358 W           400915795 2016-12-23 BYU                    
## 10   0.260   0.740 L           400917170 2017-02-15 N Illinois             
## # … with 43,996 more rows, and 7 more variables:
## #   opponent_short_display_name <chr>, season <int>,
## #   team_rolling_true_shooting_percentage <dbl>,
## #   opponent_rolling_true_shooting_percentage <dbl>,
## #   team_rolling_turnover_percentage <dbl>,
## #   opponent_rolling_turnover_percentage <dbl>, TeamResult <fct>
…
6.4 Comparing it to test data

Now we can apply our fit to the test data to see how robust it is. Short version: Pretty good. Our numbers don’t dip all that much.

testpredict <- log_fit %>% predict(new_data = log_test) %>%
  bind_cols(log_test)

testpredict

## # A tibble: 11,002 × 11
##    .pred_class   game_id game_date  team_short_displa… opponent_short_di… season
##    <fct>           <int> <date>     <chr>              <chr>               <int>
##  1 L           400588682 2014-12-13 SC Upstate         Maryland             2015
##  2 L           400586182 2014-12-14 Rider              Hartford             2015
##  3 W           400586182 2014-12-14 Hartford           Rider                2015
##  4 W           400589312 2014-12-18 Gardner-Webb       Jacksonville         2015
##  5 W           400585975 2014-12-20 Norfolk State      N Arizona            2015
##  6 L           400586931 2014-12-20 Denver             Colorado State       2015
##  7 W           400587857 2014-12-20 Ohio State         North Carolina       2015
##  8 L           400587858 2014-12-20 Wake Forest        Florida              2015
##  9 W           400588379 2014-12-20 Providence         UMass                2015
## 10 W           400588692 2014-12-20 Princeton          Lipscomb             2015
## # … with 10,992 more rows, and 5 more variables:
## #   team_rolling_true_shooting_percentage <dbl>,
## #   opponent_rolling_true_shooting_percentage <dbl>,
## #   team_rolling_turnover_percentage <dbl>,
## #   opponent_rolling_turnover_percentage <dbl>, TeamResult <fct>

testpredict <- log_fit %>% predict(new_data = log_test, type="prob") %>%
  bind_cols(testpredict)

testpredict

## # A tibble: 11,002 × 13
##    .pred_W .pred_L .pred_class   game_id game_date  team_short_display_name
##      <dbl>   <dbl> <fct>           <int> <date>     <chr>                  
##  1   0.371   0.629 L           400588682 2014-12-13 SC Upstate             
##  2   0.494   0.506 L           400586182 2014-12-14 Rider                  
##  3   0.501   0.499 W           400586182 2014-12-14 Hartford               
##  4   0.733   0.267 W           400589312 2014-12-18 Gardner-Webb           
##  5   0.633   0.367 W           400585975 2014-12-20 Norfolk State          
##  6   0.471   0.529 L           400586931 2014-12-20 Denver                 
##  7   0.746   0.254 W           400587857 2014-12-20 Ohio State             
##  8   0.383   0.617 L           400587858 2014-12-20 Wake Forest            
##  9   0.536   0.464 W           400588379 2014-12-20 Providence             
## 10   0.598   0.402 W           400588692 2014-12-20 Princeton              
## # … with 10,992 more rows, and 7 more variables:
## #   opponent_short_display_name <chr>, season <int>,
## #   team_rolling_true_shooting_percentage <dbl>,
## #   opponent_rolling_true_shooting_percentage <dbl>,
## #   team_rolling_turnover_percentage <dbl>,
## #   opponent_rolling_turnover_percentage <dbl>, TeamResult <fct>
…
