Chapter 3 Multiple regression | Advanced Sports Data Analysis
…
Let’s put this against a set of games we’re familiar with.

nu <- teamstats %>% 
  filter(season == 2022, team_short_display_name == "Nebraska")

nupreds <- nu %>%
    bind_cols(predict(new_fit_lm, nu))

nupreds %>% 
  mutate(residual = team_score - .pred) %>% 
  arrange(desc(residual)) %>% 
  select(game_date, team_short_display_name, opponent_name, team_score, .pred, residual)

## # A tibble: 25 × 6
##    game_date  team_short_display_name opponent_name    team_score .pred residual
##    <date>     <chr>                   <chr>                 <dbl> <dbl>    <dbl>
##  1 2021-12-02 Nebraska                NC State                100  71.9    28.1 
##  2 2021-12-23 Nebraska                Kennesaw State           88  72.2    15.8 
##  3 2022-02-02 Nebraska                Michigan                 79  66.6    12.4 
##  4 2022-01-03 Nebraska                Ohio State               79  67.2    11.8 
##  5 2021-12-08 Nebraska                Michigan                 67  56.5    10.5 
##  6 2022-02-10 Nebraska                Minnesota                78  68.0    10.0 
##  7 2021-11-10 Nebraska                Western Illinois         74  65.7     8.30
##  8 2021-11-13 Nebraska                Sam Houston              74  68.9     5.14
##  9 2022-02-13 Nebraska                Iowa                     75  70.1     4.89
## 10 2021-11-27 Nebraska                South Dakota             83  78.3     4.74
## # … with 15 more rows
…
