Chapter 2 The modeling process and linear regression | Advanced Sports Data Analysis
…
nu <- teamstats %>% filter(season == 2022, team_short_display_name == "Nebraska")

Now apply the model to the games.

nupreds <- nu %>%
    bind_cols(predict(fit_lm, nu))

To really see this clearly, we’ll calculate the residual, then sort by the residual. Where did the model miss the most, for good or bad?

nupreds %>% 
  mutate(residual = team_score - .pred) %>% 
  arrange(desc(residual)) %>% 
  select(game_date, team_short_display_name, opponent_name, team_score, .pred, residual)

## # A tibble: 22 × 6
##    game_date  team_short_display_name opponent_name    team_score .pred residual
##    <date>     <chr>                   <chr>                 <dbl> <dbl>    <dbl>
##  1 2021-12-02 Nebraska                NC State                100  75.6    24.4 
##  2 2022-01-03 Nebraska                Ohio State               79  62.0    17.0 
##  3 2022-02-02 Nebraska                Michigan                 79  66.4    12.6 
##  4 2021-11-10 Nebraska                Western Illinois         74  63.8    10.2 
##  5 2021-12-08 Nebraska                Michigan                 67  59.6     7.42
##  6 2021-12-23 Nebraska                Kennesaw State           88  81.5     6.48
##  7 2021-11-13 Nebraska                Sam Houston              74  67.9     6.11
##  8 2021-11-27 Nebraska                South Dakota             83  78.5     4.53
##  9 2021-11-20 Nebraska                Idaho State              78  75.0     2.97
## 10 2021-11-17 Nebraska                Creighton                69  66.1     2.87
## # … with 12 more rows
…
