Chapter 7 Using random forests to predict winners | Advanced Sports Data Analysis
…
Let’s use our fits to see what’s happened in Nebraska’s season so far, to see differences in the models.

Here’s the logistic regression.

nu <- modelgames %>% filter(team_short_display_name == "Nebraska" & season == 2022) %>% arrange(game_date)

nulogpredict <- log_fit %>% predict(new_data = nu) %>%
  bind_cols(nu)

nulogpredict <- log_fit %>% predict(new_data = nu, type="prob") %>%
  bind_cols(nulogpredict)

nulogpredict %>% select(.pred_class, TeamResult, opponent_short_display_name, everything())

## # A tibble: 26 × 13
##    .pred_class TeamResult opponent_short_dis… .pred_W .pred_L game_id game_date 
##    <fct>       <fct>      <chr>                 <dbl>   <dbl>   <int> <date>    
##  1 W           L          W Illinois           0.725   0.275   4.01e8 2021-11-10
##  2 W           W          Sam Houston          0.752   0.248   4.01e8 2021-11-13
##  3 L           L          Creighton            0.197   0.803   4.01e8 2021-11-17
##  4 W           W          Idaho State          0.945   0.0546  4.01e8 2021-11-20
##  5 W           W          Southern             0.983   0.0169  4.01e8 2021-11-21
##  6 W           W          Tennessee State      0.972   0.0279  4.01e8 2021-11-24
##  7 W           W          South Dakota         0.695   0.305   4.01e8 2021-11-27
##  8 L           L          NC State             0.354   0.646   4.01e8 2021-12-02
##  9 L           L          Indiana              0.184   0.816   4.01e8 2021-12-04
## 10 L           L          Michigan             0.0242  0.976   4.01e8 2021-12-08
## # … with 16 more rows, and 6 more variables: team_short_display_name <chr>,
## #   season <int>, team_rolling_true_shooting_percentage <dbl>,
## #   opponent_rolling_true_shooting_percentage <dbl>,
## #   team_rolling_turnover_percentage <dbl>,
## #   opponent_rolling_turnover_percentage <dbl>

It gets the Western Illinois game wrong (like everyone) and thought we’d be Kansas State going in. Those are the two misses.

Now, the random forest.

nurfpredict <- rf_fit %>% predict(new_data = nu) %>%
  bind_cols(nu)

nurfpredict <- rf_fit %>% predict(new_data = nu, type="prob") %>%
  bind_cols(nurfpredict)

nurfpredict %>% select(.pred_class, TeamResult, opponent_short_display_name, everything())

## # A tibble: 26 × 13
##    .pred_class TeamResult opponent_short_dis… .pred_W .pred_L game_id game_date 
##    <fct>       <fct>      <chr>                 <dbl>   <dbl>   <int> <date>    
##  1 W           L          W Illinois           0.809  0.191    4.01e8 2021-11-10
##  2 W           W          Sam Houston          0.928  0.0721   4.01e8 2021-11-13
##  3 L           L          Creighton            0.220  0.780    4.01e8 2021-11-17
##  4 W           W          Idaho State          0.942  0.0581   4.01e8 2021-11-20
##  5 W           W          Southern             0.998  0.00211  4.01e8 2021-11-21
##  6 W           W          Tennessee State      0.982  0.0179   4.01e8 2021-11-24
##  7 W           W          South Dakota         0.869  0.131    4.01e8 2021-11-27
##  8 L           L          NC State             0.172  0.828    4.01e8 2021-12-02
##  9 L           L          Indiana              0.163  0.837    4.01e8 2021-12-04
## 10 L           L          Michigan             0.0374 0.963    4.01e8 2021-12-08
## # … with 16 more rows, and 6 more variables: team_short_display_name <chr>,
## #   season <int>, team_rolling_true_shooting_percentage <dbl>,
## #   opponent_rolling_true_shooting_percentage <dbl>,
## #   team_rolling_turnover_percentage <dbl>,
## #   opponent_rolling_turnover_percentage <dbl>
…
