Chapter 5 XGBoost | Advanced Sports Data Analysis
…
xgb_grid <- grid_latin_hypercube(
  trees(),
  tree_depth(),
  min_n(),
  loss_reduction(),
  sample_size = sample_prop(),
  finalize(mtry(), game_train),
  learn_rate(),
  size = 30
)

xgb_grid

## # A tibble: 30 × 7
##    trees tree_depth min_n loss_reduction sample_size  mtry learn_rate
##    <int>      <int> <int>          <dbl>       <dbl> <int>      <dbl>
##  1    24         11     2        2.35e-6       0.531     2   6.76e- 6
##  2  1693          5    26        5.94e-8       0.628     7   1.38e- 9
##  3  1013          7     8        5.28e-9       0.132     1   6.44e- 2
##  4   952         11    23        1.54e+1       0.811     4   1.22e- 3
##  5   608          2    11        1.57e-7       0.588     6   1.08e- 2
##  6  1646          9    33        1.09e-9       0.759     5   2.60e- 3
##  7   140         14    16        1.36e-1       0.313     4   6.52e-10
##  8  1321          6    37        1.43e-8       0.403     2   8.17e- 9
##  9   222          3    29        2.48e-5       0.488     5   1.28e- 7
## 10  1227         11    12        2.23e-8       0.501     8   8.74e- 8
## # … with 20 more rows
…
So our grid has run on all of our validation samples, and what do we see?

collect_metrics(xgb_res)

## # A tibble: 60 × 13
##     mtry trees min_n tree_depth learn_rate loss_reduction sample_size .metric
##    <int> <int> <int>      <int>      <dbl>          <dbl>       <dbl> <chr>  
##  1     9  1855    38          1   1.29e- 5    1.50              0.936 rmse   
##  2     9  1855    38          1   1.29e- 5    1.50              0.936 rsq    
##  3     6   608    11          2   1.08e- 2    0.000000157       0.588 rmse   
##  4     6   608    11          2   1.08e- 2    0.000000157       0.588 rsq    
##  5     7  1166    28          2   3.29e-10    0.00000426        0.265 rmse   
##  6     7  1166    28          2   3.29e-10    0.00000426        0.265 rsq    
##  7     8  1397    22          3   3.72e- 6    0.0204            0.114 rmse   
##  8     8  1397    22          3   3.72e- 6    0.0204            0.114 rsq    
##  9     5   222    29          3   1.28e- 7    0.0000248         0.488 rmse   
## 10     5   222    29          3   1.28e- 7    0.0000248         0.488 rsq    
## # … with 50 more rows, and 5 more variables: .estimator <chr>, mean <dbl>,
## #   n <int>, std_err <dbl>, .config <chr>
…
