Chapter 8 XGBoost to make classifications | Advanced Sports Data Analysis
…
xgb_grid <- grid_latin_hypercube(
  trees(),
  tree_depth(),
  min_n(),
  loss_reduction(),
  sample_size = sample_prop(),
  finalize(mtry(), game_train),
  learn_rate(),
  size = 30
)

xgb_grid

## # A tibble: 30 × 7
##    trees tree_depth min_n loss_reduction sample_size  mtry learn_rate
##    <int>      <int> <int>          <dbl>       <dbl> <int>      <dbl>
##  1   842         13    36       1.83e- 9       0.687     4   1.14e- 8
##  2    25         10    34       1.08e-10       0.837     8   5.58e-10
##  3  1870          9     8       8.15e- 6       0.149     6   2.37e- 3
##  4   171         14    13       7.49e- 5       0.259     3   2.51e- 8
##  5  1974          1    30       3.36e- 4       0.609    11   2.12e- 5
##  6  1242         11    36       5.86e- 1       0.787     7   3.78e- 8
##  7   435          3    17       3.10e- 3       0.936     2   4.65e- 7
##  8   786          9    28       1.71e- 5       0.701     5   9.97e- 8
##  9   316          4    22       7.11e- 9       0.454    11   1.21e- 4
## 10  1802         10    15       1.90e- 7       0.521     5   7.96e- 2
## # … with 20 more rows
…
