Data Journalism With R and the Tidyverse - 6 Aggregates
…
So to do this, we’ll take our dataset and we’ll introduce a new operator: |>. The best way to read that operator, in my opinion, is to interpret that as “and then do this.”

We’re going to establish a pattern that will come up again and again throughout this book: data |> function. The first step of every analysis starts with the data being used. Then we apply functions to the data.

In our case, the pattern that you’ll use many, many times is: data |> group_by(FIELD NAME) |> summarize(VARIABLE NAME = AGGREGATE FUNCTION(FIELD NAME))

Here’s the code:

mountainlions |>
  group_by(COUNTY) |>
  summarise(
    total = n()
  )

# A tibble: 42 × 2
   COUNTY    total
   <chr>     <int>
 1 Banner        6
 2 Blaine        3
 3 Box Butte     4
 4 Brown        15
 5 Buffalo       3
 6 Cedar         1
 7 Cherry       30
 8 Custer        8
 9 Dakota        3
10 Dawes       111
# ℹ 32 more rows

So let’s walk through that. We start with our dataset – mountainlions – and then we tell it to group the data by a given field in the data. In this case, we wanted to group together all the counties, signified by the field name COUNTY, which you could get from looking at head(mountainlions). After we group the data, we need to count them up. In dplyr, we use summarize which can do more than just count things. Inside the parentheses in summarize, we set up the summaries we want. In this case, we just want a count of the counties: total = n(), says create a new field, called total and set it equal to n(), which might look weird, but it’s common in stats. The number of things in a dataset? Statisticians call in n. There are n number of incidents in this dataset. So n() is a function that counts the number of things there are.

And when we run that, we get a list of counties with a count next to them. But it’s not in any order. So we’ll add another And Then Do This |> and use arrange. Arrange does what you think it does – it arranges data in order. By default, it’s in ascending order – smallest to largest. But if we want to know the county with the most mountain lion sightings, we need to sort it in descending order. That looks like this:

mountainlions |>
  group_by(COUNTY) |>
  summarise(
    count = n()
  ) |> arrange(desc(count))

# A tibble: 42 × 2
   COUNTY       count
   <chr>        <int>
 1 Dawes          111
 2 Sioux           52
 3 Sheridan        35
 4 Cherry          30
 5 Scotts Bluff    26
 6 Keya Paha       20
 7 Brown           15
 8 Rock            11
 9 Lincoln         10
10 Custer           8
# ℹ 32 more rows

We can, if we want, group by more than one thing. So how are these sightings being confirmed? To do that, we can group by County and “Cofirm Type”, which is how the state misspelled Confirm. But note something in this example below:

mountainlions |>
  group_by(COUNTY, `Cofirm Type`) |>
  summarise(
    count = n()
  ) |> arrange(desc(count))

`summarise()` has grouped output by 'COUNTY'. You can override using the
`.groups` argument.

# A tibble: 93 × 3
# Groups:   COUNTY [42]
   COUNTY       `Cofirm Type`      count
   <chr>        <chr>              <int>
 1 Dawes        Trail Camera Photo    41
 2 Sioux        Trail Camera Photo    40
 3 Dawes        Track                 19
 4 Keya Paha    Trail Camera Photo    18
 5 Cherry       Trail Camera Photo    17
 6 Dawes        Mortality             17
 7 Sheridan     Trail Camera Photo    16
 8 Dawes        Photo                 13
 9 Dawes        DNA                   11
10 Scotts Bluff Trail Camera Photo    11
# ℹ 83 more rows
…
# A tibble: 1 × 3
  count mean_salary median_salary
  <int>       <dbl>         <dbl>
1 13039      62065.         51343

So there’s 13,039 employees in the database, spread across four campuses plus the system office. The mean or average salary is about $62,000, but the median salary is slightly more than $51,000.

Why?

Let’s let sort help us.

salaries |> arrange(desc(`Budgeted Annual Salary`))

# A tibble: 13,039 × 7
   Employee             Position        Campus Department Budgeted Annual Sala…¹
   <chr>                <chr>           <chr>  <chr>                       <dbl>
 1 Frost, Scott A       Head Coach-Foo… UNL    Athletics                 5000000
 2 Miles, Timothy S     Head Coach-Bas… UNL    Athletics                 2375000
 3 Moos, William H      Athletic Direc… UNL    Athletics                 1000000
 4 Gold, Jeffrey P      Chancellor      UNMC   Office of…                 853338
 5 Chinander, Erik J    Assistant Coac… UNL    Athletics                  800000
 6 Walters, Troy M      Assistant Coac… UNL    Athletics                  700000
 7 Cook, John G         Head Coach-Vol… UNL    Athletics                  675000
 8 Williams, Amy M      Head Coach-Wom… UNL    Athletics                  626750
 9 Bounds, Hank M       President       UNCA   Office of…                 540000
10 Austin Jr, Gregory D Assistant Coac… UNL    Athletics                  475000
# ℹ 13,029 more rows
# ℹ abbreviated name: ¹​`Budgeted Annual Salary`
# ℹ 2 more variables: `Salary from State Aided Funds` <dbl>,
#   `Salary from Other Funds` <dbl>
…
Which department on campus has the highest wage bill? And what is the highest and lowest salary in the department? And how wide is the spread between salaries? We can find that with sum to add up the salaries to get the total wage bill, min to find the minumum salary, max to find the maximum salary and sd to find the standard deviation in the numbers.

salaries |> 
  group_by(Campus, Department) |> 
  summarize(
    total = sum(`Budgeted Annual Salary`), 
    avgsalary = mean(`Budgeted Annual Salary`), 
    minsalary = min(`Budgeted Annual Salary`),
    maxsalary = max(`Budgeted Annual Salary`),
    stdev = sd(`Budgeted Annual Salary`)) |> arrange(desc(total))

`summarise()` has grouped output by 'Campus'. You can override using the
`.groups` argument.

# A tibble: 804 × 7
# Groups:   Campus [5]
   Campus Department                  total avgsalary minsalary maxsalary  stdev
   <chr>  <chr>                       <dbl>     <dbl>     <dbl>     <dbl>  <dbl>
 1 UNL    Athletics                  3.56e7   118508.     12925   5000000 3.33e5
 2 UNMC   Pathology/Microbiology     1.36e7    63158.      1994    186925 3.41e4
 3 UNL    Agronomy & Horticulture    8.98e6    66496.      5000    208156 4.01e4
 4 UNMC   Anesthesiology             7.90e6    78237.     10000    245174 3.59e4
 5 UNL    School of Natural Resourc… 6.86e6    65995.      2400    194254 3.28e4
 6 UNL    College of Law             6.70e6    77953.      1000    326400 7.23e4
 7 UNL    University Television      6.44e6    55542.     16500    221954 2.75e4
 8 UNL    University Libraries       6.27e6    51390.      1200    215917 2.68e4
 9 UNMC   Pharmacology/Exp Neurosci… 6.24e6    58911.      2118    248139 4.29e4
10 UNMC   CON-Omaha Division         6.11e6    78304.      3000    172522 4.48e4
# ℹ 794 more rows
…
