Data Journalism With R and the Tidyverse - 10 Data Cleaning Part I: Data smells
…
ℹ Use `spec()` to retrieve the full column specification for this data.
ℹ Specify the column types or set `show_col_types = FALSE` to quiet this message.

For this, things seem to be good. Date appears to be in date format, things that aren’t numbers appear to be text. That’s a good start.

10.2 Missing Data

The second smell we can find in code is missing data. We can do that through a series of Group By and Count steps.

tickets |> group_by(Location) |> tally()

# A tibble: 247 × 2
   Location                        n
   <chr>                       <int>
 1 1001 Y Street                 508
 2 10th & Q Street               303
 3 10th & U Street               222
 4 1101 Y Street                  83
 5 11th & Y Street                38
 6 1235 Military Road             33
 7 1320 Q                          1
 8 13th & R Lot                 4918
 9 14th & Avery Lot             1601
10 14th & Avery Parking Garage  2494
# ℹ 237 more rows

What we’re looking for here are blanks: Tickets without a location. Typically, those will appear first or last, depending on several things, so it’s worth checking the front and back of our data.

What about ticket type?

tickets |> group_by(Violation) |> tally()

# A tibble: 25 × 2
   Violation                          n
   <chr>                          <int>
 1 Damage Property                   25
 2 Displaying Altered Permit      23280
 3 Displaying Counterfeit Permit     18
 4 Displaying Stolen Permit           4
 5 Expired Meter                  45072
 6 Failure to Pay[on exit]          251
 7 Failure to Reg. Veh to Permit     53
 8 Failure to Register Veh w/ UNL   113
 9 False Lost/Stolen Permit Rept    927
10 Falsify Permit Application         3
# ℹ 15 more rows

None here either, so that’s good. It means our tickets will always have a location and a violation type.

10.3 Gaps in data

Let’s now look at gaps in data. It’s been my experience that gaps in data often have to do with time, so let’s first look at ticket dates, so we can see if there’s any big jumps in data. You’d expect the numbers to change, but not by huge amounts. Huge change would indicate, more often than not, that the data is missing. Let’s start with Date. If we’re going to work with dates, we should have lubridate handy for floor_date.

library(lubridate)

tickets |> group_by(floor_date(Date, "month")) |> tally()

# A tibble: 56 × 2
   `floor_date(Date, "month")`     n
   <dttm>                      <int>
 1 2012-04-01 00:00:00          3473
 2 2012-05-01 00:00:00          2572
 3 2012-06-01 00:00:00          2478
 4 2012-07-01 00:00:00          2134
 5 2012-08-01 00:00:00          3774
 6 2012-09-01 00:00:00          4138
 7 2012-10-01 00:00:00          4173
 8 2012-11-01 00:00:00          3504
 9 2012-12-01 00:00:00          1593
10 2013-01-01 00:00:00          3078
# ℹ 46 more rows

First thing to notice: our data starts in April 2012. So 2012 isn’t a complete year. Then, scroll through. Look at December 2013 - March 2014. The number of tickets drops to about 10 percent of normal. That’s … odd. And then let’s look at the end – November 2016. So not a complete year in 2016 either.

10.4 Internal inconsistency

Any time you are going to focus on something, you should check it for consistency inside the data set. So let’s pretend the large number of Displaying Altered Permit tickets caught your attention and you want to do a story about tens of thousands of students being caught altering their parking permits to reduce their costs parking on campus. Good story right? Before you go calling the parking office for comment, I’d check that data first.

tickets |> filter(Violation == "Displaying Altered Permit") |> group_by(floor_date(Date, "month")) |> tally()

# A tibble: 29 × 2
   `floor_date(Date, "month")`     n
   <dttm>                      <int>
 1 2012-04-01 00:00:00          1072
 2 2012-05-01 00:00:00          1283
 3 2012-06-01 00:00:00          1324
 4 2012-07-01 00:00:00          1357
 5 2012-08-01 00:00:00          2249
 6 2012-09-01 00:00:00          1797
 7 2012-10-01 00:00:00          1588
 8 2012-11-01 00:00:00          1183
 9 2012-12-01 00:00:00           458
10 2013-01-01 00:00:00          1132
# ℹ 19 more rows
…
