Data Journalism With R and the Tidyverse - 8 Working with dates
…
But you’re not done with lubridate yet. It has some interesting pieces parts we’ll use elsewhere.

What’s a question you might have about parking tickets on campus involving dates?

How about what month are the most tickets issued? We could use formatting to create a Month field but that would group all the Aprils ever together. We could create a year and a month together, but that would give us an invalid date object and that would create problems later. Lubridate has something called a floor date that we can use.

So to follow along here, we’re going to use mutate to create a month field, group by to lump them together, summarize to count them up and arrange to order them. We’re just chaining things together.

tickets |> 
  mutate(Month = floor_date(Date, "month")) |> 
  group_by(Month) |> 
  summarise(total = n()) |>
  arrange(desc(total))

# A tibble: 56 × 2
   Month               total
   <dttm>              <int>
 1 2014-10-01 00:00:00  5177
 2 2015-04-01 00:00:00  4913
 3 2014-09-01 00:00:00  4645
 4 2015-09-01 00:00:00  4541
 5 2015-10-01 00:00:00  4403
 6 2015-03-01 00:00:00  4392
 7 2016-02-01 00:00:00  4314
 8 2016-09-01 00:00:00  4221
 9 2016-03-01 00:00:00  4194
10 2012-10-01 00:00:00  4173
# ℹ 46 more rows
…
