Data Journalism With R and the Tidyverse - 11 Data Cleaning Part II: Janitor
…
ℹ Use `spec()` to retrieve the full column specification for this data.
ℹ Specify the column types or set `show_col_types = FALSE` to quiet this message.

From the output of readr, you can see all kinds of problems from the get go. Two columns are missing names entirely. Three columns repeat – first name, middle name and name extension. And many field names have spaces or other not-allowed characters. Not to mention: All of them are in ALL CAPS.

Janitor makes this easy to fix. How easy? This easy.

inmates |> clean_names()

# A tibble: 7,674 × 32
   id_number committed_last_name first_name_3 middle_name_4 name_extension_5
       <dbl> <chr>               <chr>        <chr>         <chr>           
 1      6145 KANE                THOMAS       <NA>          <NA>            
 2     20841 ARNOLD              WILLIAM      L             <NA>            
 3     25324 WALKER              RICHARD      T             <NA>            
 4     25565 ALVAREZ             THOMAS       A             <NA>            
 5     26103 ADAMS               BRIAN        J             <NA>            
 6     26547 KIRBY               RONALD       EUGENE        <NA>            
 7     27471 NIEMANN             MAX          A             <NA>            
 8     27666 ORTIZ               LAWRENCE     <NA>          <NA>            
 9     27767 POINDEXTER          EDWARD       <NA>          <NA>            
10     27778 DITTRICH            LADDIE       F             <NA>            
# ℹ 7,664 more rows
# ℹ 27 more variables: legal_last_name <chr>, first_name_7 <chr>,
#   middle_name_8 <chr>, name_extension_9 <lgl>, date_of_birth <chr>,
#   race_desc <chr>, gender <chr>, facility <chr>,
#   current_sentence_pardoned_or_commuted_date <chr>, gun_clause <lgl>,
#   sentence_begin_date <chr>, min_term_year <chr>, min_month <dbl>,
#   min_day <dbl>, max_term_year <chr>, max_month <dbl>, max_day <dbl>, …
…
