Data Journalism With R and the Tidyverse - 14 Combining and joining
…
So we can do this join multiple ways and get a similar result. We can put the person file on the left and the accident on the right and use a left join to get them all together. And we use by= to join by the right column. And to avoid rendering hundreds of rows of data, I’m going to count the rows at the end. The reason I’m going this is important: Rule 1 in joining data is having an idea of what you are expecting to get. So with a left join with people on the left, I have 553 people, so I expect to get 553 rows when I’m done.

persons |> left_join(accidents, by="ST_CASE") |> nrow()

[1] 553

Remove the nrow and run it again for yourself. See how there are several columns that end with .X? That means they’re duplicates. There’s a solid chance they are the same in both tables. By default, dplyr will do a “natural” join, where it’ll match all the matching columns in both tables. So if we take out the by, it’ll use all the common columns between the tables. That may not be right – our documentation says ST_CASE is how they are related – but let’s try it. If it works, we should get 553 rows.

persons |> left_join(accidents) 

Joining with `by = join_by(STATE, ST_CASE, VE_FORMS, COUNTY, DAY, MONTH, HOUR,
MINUTE, RUR_URB, FUNC_SYS, HARM_EV, MAN_COLL, SCH_BUS)`

# A tibble: 553 × 101
   STATE ST_CASE VE_FORMS VEH_NO PER_NO STR_VEH COUNTY   DAY MONTH  HOUR MINUTE
   <dbl>   <dbl>    <dbl>  <dbl>  <dbl>   <dbl>  <dbl> <dbl> <dbl> <dbl>  <dbl>
 1    31  310001        2      1      1       0     55     1     1     0     20
 2    31  310001        2      2      1       0     55     1     1     0     20
 3    31  310002        1      1      1       0    157     7     1    22      0
 4    31  310003        1      0      1       1     55    10     1     6     57
 5    31  310003        1      1      1       0     55    10     1     6     57
 6    31  310004        2      1      1       0     79    10     1    16     55
 7    31  310004        2      2      1       0     79    10     1    16     55
 8    31  310005        2      1      1       0    119    10     1     4     30
 9    31  310005        2      2      1       0    119    10     1     4     30
10    31  310006        1      0      1       1    109    11     1     6     25
# ℹ 543 more rows
# ℹ 90 more variables: RUR_URB <dbl>, FUNC_SYS <dbl>, HARM_EV <dbl>,
#   MAN_COLL <dbl>, SCH_BUS <dbl>, MAKE <dbl>, MAK_MOD <dbl>, BODY_TYP <dbl>,
#   MOD_YEAR <dbl>, TOW_VEH <dbl>, SPEC_USE <dbl>, EMER_USE <dbl>,
#   ROLLOVER <dbl>, IMPACT1 <dbl>, FIRE_EXP <dbl>, AGE <dbl>, SEX <dbl>,
#   PER_TYP <dbl>, INJ_SEV <dbl>, SEAT_POS <dbl>, REST_USE <dbl>,
#   REST_MIS <dbl>, AIR_BAG <dbl>, EJECTION <dbl>, EJ_PATH <dbl>, …
…
