Data Journalism With R and the Tidyverse - 12 Data Cleaning Part III: Open Refine
…
Rows: 393 Columns: 4
── Column specification ────────────────────────────────────────────────────────
Delimiter: ","
chr (3): Cofirm Type, COUNTY, Date
dbl (1): ID

ℹ Use `spec()` to retrieve the full column specification for this data.
ℹ Specify the column types or set `show_col_types = FALSE` to quiet this message.

The issue in this dataset, if you look carefully, is that there’s two Sheridan counties – a Sheridan and a sheridan.

mountainlions |> group_by(COUNTY) |> tally()

# A tibble: 42 × 2
   COUNTY        n
   <chr>     <int>
 1 Banner        6
 2 Blaine        3
 3 Box Butte     4
 4 Brown        15
 5 Buffalo       3
 6 Cedar         1
 7 Cherry       30
 8 Custer        8
 9 Dakota        3
10 Dawes       111
# ℹ 32 more rows

The first merging technique we’ll try is the key_collision_merge. The key collision merge function takes each string and extracts the key parts of it. It then puts every key in a bin based on the keys matching. So in this case, it finds sheridan and Sheridan and recognizes that the keys match, and since Sheridan is more common, it uses that one.

One rule you should follow: do not overwrite your original fields. Always work on a copy. If you overwrite your original field, how will you know if it did the right thing? How can you compare it to your original data? To follow this, I’m going to mutate a new field called CleanCounty and put the results of key collision merge there.

Then, to show it worked, I’ll do the same group and count.

mountainlions |> 
  mutate(CleanCounty = key_collision_merge(COUNTY)) |>
  group_by(CleanCounty) |> tally()

# A tibble: 41 × 2
   CleanCounty     n
   <chr>       <int>
 1 Banner          6
 2 Blaine          3
 3 Box Butte       4
 4 Brown          15
 5 Buffalo         3
 6 Cedar           1
 7 Cherry         30
 8 Custer          8
 9 Dakota          3
10 Dawes         111
# ℹ 31 more rows
…
BUT.

Are they right?

We have no idea. Let’s look at the first 30 rows.

charges |> 
  mutate(
    clean_charges = n_gram_merge(
      offense_arrest_desc, method = "soundex", useBytes = TRUE
      )) |>
  filter(clean_charges != offense_arrest_desc) |> select(offense_arrest_desc, clean_charges) |> head(30)

# A tibble: 30 × 2
   offense_arrest_desc            clean_charges                 
   <chr>                          <chr>                         
 1 ASSLT WI INFLICT BODILY INJURY ASSLT W/I INFLCT BODILY INJURY
 2 STAB W/I TO KILL WOUND OR MAIM STAB W/I KILL, WOUND, OR MAIM 
 3 USE OF WEAPON TO COMMIT FELONY USE WEAPON TO COMMIT FELONY   
 4 3RD DEGREE ASSAULT ON OFFICER  ASSAULT ON OFFICER 3RD DEGREE 
 5 3RD DEGREE ASSAULT ON OFFICER  ASSAULT ON OFFICER 3RD DEGREE 
 6 POSS CONTROLLED SUBSTANCE      POSSESS CONTROLLED SUBSTANCE  
 7 MANUF/DIST CONT SUBST - MARIJ. DISTRIBUTION OF C/S-MARIJUANA 
 8 POSS DEADLY WEAP BY FELON      POSSESS DEADLY WEAPON BY FELON
 9 POSS FIREARM BY FELON          POS FIREARM BY FELON          
10 3RD DGR ASSAULT ON AN OFFICER  ASSAULT ON AN OFFICER 3RD DEGR
# ℹ 20 more rows
…
