…
## # A tibble: 6 x 4
##   `Institution name`              `Cohort year` Gender `Graduation rate (
##   <chr>                                   <int> <chr>                <dbl>
## 1 University of Hartford                   1998 Men                   47.2
## 2 University of Hartford                   1998 Women                 57.8
## 3 University of Maine, Orono               1998 Men                   53.5
## 4 University of Maine, Orono               1998 Women                 58.7
## 5 University of Maryland, Baltim          1998 Men                   49.5
## 6 University of Maryland, Baltim          1998 Women                 60.8

To take long data and make it wide, we need to spread the data. Thats the new verb. To spread the data, we tell spread what the new columns will be and what the data values that will go with them. Spread does the rest.

spreaddata %>% spread(`Cohort year`, `Graduation rate (%)`)

## # A tibble: 711 x 14
##    `Institution na Gender `1998` `1999` `2000` `2001` `2002` `2003` `2004`
##    <chr>            <chr>   <dbl>  <dbl>  <dbl>  <dbl>  <dbl>  <dbl>  <dbl>
##  1 Abilene Christi Men      NA     NA     NA     NA     NA     NA     NA  
##  2 Abilene Christi Women    NA     NA     NA     NA     NA     NA     NA  
##  3 Alabama A&M Uni Men      23.5   21.2   25.2   24.3   27.2   23.8   25  
##  4 Alabama A&M Uni Women    41.3   42.9   42.1   41.4   38.1   33.3   40.8
##  5 Alabama State U Men      15.6   17     21.1   17.4   12.3   14.9   17.9
##  6 Alabama State U Women    29.8   28.2   35     35.3   28.2   27.4   29.1
##  7 Alcorn State Un Men      35.6   36.5   34.4   36.1   32.2   29.5   27  
##  8 Alcorn State Un Women    49     49.5   56     49.6   44.2   46.1   47.6
##  9 American Univer Men      67.7   67.4   65.9   73.2   73.2   78.6   77.4
## 10 American Univer Women    75.7   72.2   73.1   72.8   76.9   76.6   80.3
## # ... with 701 more rows, and 5 more variables: `2005` <dbl>,
## #   `2006` <dbl>, `2007` <dbl>, `2008` <dbl>, `2009` <dbl>
…
Oh drat, the NCAA has given me wide data and for a visualization project, I need long data. Whatever will I do?

Gather, unfortunately, isnt as easy as spread. It can take some fiddling to get right. Theres a ton of examples online if you Google for them, but heres what you do: You tell gather what the new column of data you are creating out of the field names first, you then tell it what the value field is going to be called. In our case, since we had two other fields, we need to tell gather to enumerate data by these things to, and we do it with the negative sign, and then we tell gather which fields are getting made into long values. In this case, I used the numbers of the fields  field 3 to field 14  instead of naming them.

gatherdata %>% gather(`Cohort Year`, `Graduation rate (%)`, -`Institution name`, -Gender,  3:14)

## # A tibble: 8,532 x 4
##    `Institution name`           Gender `Cohort Year` `Graduation rate (%)`
##    <chr>                        <chr>  <chr>                         <dbl>
##  1 Abilene Christian University Men    1998                           NA  
##  2 Abilene Christian University Women  1998                           NA  
##  3 Alabama A&M University       Men    1998                           23.5
##  4 Alabama A&M University       Women  1998                           41.3
##  5 Alabama State University     Men    1998                           15.6
##  6 Alabama State University     Women  1998                           29.8
##  7 Alcorn State University      Men    1998                           35.6
##  8 Alcorn State University      Women  1998                           49  
##  9 American University          Men    1998                           67.7
## 10 American University          Women  1998                           75.7
## # ... with 8,522 more rows
…
