Sports Data Analysis and Visualization - 4 Aggregates
…
So the most common position in the NBA? Shooting guard, followed by power forward.

We can, if we want, group by more than one thing. Which team has the most of a single position? To do that, we can group by the team – called Tm in the data – and position, or Pos in the data:

nbaplayers %>%
  group_by(Tm, Pos) %>%
  summarise(
    total = n()
  ) %>% arrange(desc(total))

`summarise()` has grouped output by 'Tm'. You can override using the `.groups`
argument.

# A tibble: 159 × 3
# Groups:   Tm [31]
   Tm    Pos   total
   <chr> <chr> <int>
 1 TOT   PF       13
 2 TOT   SG       13
 3 SAC   PF        9
 4 TOT   SF        9
 5 BRK   SG        8
 6 LAL   SG        8
 7 TOT   PG        8
 8 ATL   SG        7
 9 BRK   SF        7
10 DAL   SG        7
# … with 149 more rows
…
So there’s 651 players in the data. Let’s look at shooting guards. The average shooting guard plays 842 minutes and the median is 653.5 minutes.

Why?

Let’s let sort help us.

nbaplayers %>% arrange(desc(MP))

# A tibble: 651 × 27
      Rk Player    Pos     Age Tm        G    MP   PER `TS%` `3PAr`   FTr `ORB%`
   <dbl> <chr>     <chr> <dbl> <chr> <dbl> <dbl> <dbl> <dbl>  <dbl> <dbl>  <dbl>
 1   323 CJ McCol… SG       28 POR      70  2556  17   0.541  0.378 0.136    1.9
 2    55 Devin Bo… SG       23 PHO      70  2512  20.6 0.618  0.31  0.397    1.3
 3   198 James Ha… SG       30 HOU      68  2483  29.1 0.626  0.557 0.528    2.9
 4    27 Harrison… PF       27 SAC      72  2482  13.3 0.574  0.338 0.337    3.4
 5   297 Damian L… PG       29 POR      66  2474  26.9 0.627  0.5   0.384    1.4
 6   204 Tobias H… PF       27 PHI      72  2469  17.2 0.556  0.304 0.184    3.1
 7   479 P.J. Tuc… PF       34 HOU      72  2467   8.3 0.559  0.702 0.113    4.7
 8   175 Shai Gil… SG       21 OKC      70  2428  17.7 0.568  0.247 0.352    2.2
 9     2 Bam Adeb… PF       22 MIA      72  2417  20.3 0.598  0.018 0.484    8.5
10   343 Donovan … SG       23 UTA      69  2364  18.8 0.558  0.352 0.24     2.6
# … with 641 more rows, and 15 more variables: `DRB%` <dbl>, `TRB%` <dbl>,
#   `AST%` <dbl>, `STL%` <dbl>, `BLK%` <dbl>, `TOV%` <dbl>, `USG%` <dbl>,
#   OWS <dbl>, DWS <dbl>, WS <dbl>, `WS/48` <dbl>, OBPM <dbl>, DBPM <dbl>,
#   BPM <dbl>, VORP <dbl>
…
