6 Filters and selections – Sports Data Analysis and Visualization
…
But what if we want to see all of the Power Five conferences? We could use conditional logic in our filter. The conditional logic operators are | for OR and & for AND. NOTE: AND means all conditions have to be met. OR means any of the conditions work. So be careful about boolean logic.

attendance |> filter(Conference == "Big 10" | Conference == "SEC" | Conference == "Pac-12" | Conference == "ACC" | Conference == "Big 12")

# A tibble: 51 × 8
   Institution    Conference `2013` `2014` `2015` `2016` `2017` `2018`
   <chr>          <chr>       <dbl>  <dbl>  <dbl>  <dbl>  <dbl>  <dbl>
 1 Alabama        SEC        710538 710736 707786 712747 712053 710931
 2 Arizona        Pac-12     285713 354973 308355 338017 255791 318051
 3 Arizona St.    Pac-12     501509 343073 368985 286417 359660 291091
 4 Arkansas       SEC        431174 399124 471279 487067 442569 367748
 5 Auburn         SEC        685252 612157 612157 695498 605120 591236
 6 Baylor         Big 12     321639 280257 276960 275029 262978 248017
 7 Boston College ACC        198035 239893 211433 192942 215546 263363
 8 California     Pac-12     345303 286051 292797 279769 219290 300061
 9 Clemson        ACC        574333 572262 588266 566787 565412 562799
10 Colorado       Pac-12     230778 226670 236331 279652 282335 274852
# ℹ 41 more rows

But that’s a lot of repetitive code. And a lot of typing. And typing is the devil. So what if we could create a list and pass it into the filter? It’s pretty simple.

We can create a new variable – remember variables can represent just about anything – and create a list. To do that we use the c operator, which stands for concatenate. That just means take all the stuff in the parenthesis after the c and bunch it into a list.

Note here: text is in quotes. If they were numbers, we wouldn’t need the quotes.

powerfive <- c("SEC", "Big Ten", "Pac-12", "Big 12", "ACC")

Now with a list, we can use the %in% operator. It does what you think it does – it gives you data that matches things IN the list you give it.

attendance |> filter(Conference %in% powerfive)

# A tibble: 65 × 8
   Institution    Conference `2013` `2014` `2015` `2016` `2017` `2018`
   <chr>          <chr>       <dbl>  <dbl>  <dbl>  <dbl>  <dbl>  <dbl>
 1 Alabama        SEC        710538 710736 707786 712747 712053 710931
 2 Arizona        Pac-12     285713 354973 308355 338017 255791 318051
 3 Arizona St.    Pac-12     501509 343073 368985 286417 359660 291091
 4 Arkansas       SEC        431174 399124 471279 487067 442569 367748
 5 Auburn         SEC        685252 612157 612157 695498 605120 591236
 6 Baylor         Big 12     321639 280257 276960 275029 262978 248017
 7 Boston College ACC        198035 239893 211433 192942 215546 263363
 8 California     Pac-12     345303 286051 292797 279769 219290 300061
 9 Clemson        ACC        574333 572262 588266 566787 565412 562799
10 Colorado       Pac-12     230778 226670 236331 279652 282335 274852
# ℹ 55 more rows

6.1 Selecting data to make it easier to read

So now we have our Power Five list. What if we just wanted to see attendance from the most recent season and ignore all the rest? Select to the rescue.

attendance |> filter(Conference %in% powerfive) |> select(Institution, Conference, `2018`)

# A tibble: 65 × 3
   Institution    Conference `2018`
   <chr>          <chr>       <dbl>
 1 Alabama        SEC        710931
 2 Arizona        Pac-12     318051
 3 Arizona St.    Pac-12     291091
 4 Arkansas       SEC        367748
 5 Auburn         SEC        591236
 6 Baylor         Big 12     248017
 7 Boston College ACC        263363
 8 California     Pac-12     300061
 9 Clemson        ACC        562799
10 Colorado       Pac-12     274852
# ℹ 55 more rows
…
Rows: 5410 Columns: 58
── Column specification ────────────────────────────────────────────────────────
Delimiter: ","
chr  (9): Team, Player, Class, Pos, Height, Hometown, High School, Summary, ...
dbl (49): #, Weight, Rk.x, G, GS, MP, FG, FGA, FG%, 2P, 2PA, 2P%, 3P, 3PA, 3...

ℹ Use `spec()` to retrieve the full column specification for this data.
ℹ Specify the column types or set `show_col_types = FALSE` to quiet this message.

players |>
  mutate(trueshooting = (PTS/(2*(FGA + (.44*FTA))))*100) |>
  arrange(desc(trueshooting))

# A tibble: 5,410 × 59
   Team    Player   `#` Class Pos   Height Weight Hometown `High School` Summary
   <chr>   <chr>  <dbl> <chr> <chr> <chr>   <dbl> <chr>    <chr>         <chr>  
 1 Weber … Jake …    25 SO    F     6-7       185 Star, ID Eagle (ID)    3.0 Pt…
 2 Utah S… Karso…    21 FR    G     6-4       175 Celina,… Celina HS     0.4 Pt…
 3 UNLV R… Trey …     2 JR    G     5-11      175 Henders… Coronado (NV) 1.0 Pt…
 4 Missis… Justi…    21 JR    G     6-5       215 Birming… Hoover (AL)   3.0 Pt…
 5 Louisv… Hogan…     3 SO    C     6-8       235 Zionsvi… Zionsville HS 1.0 Pt…
 6 Gonzag… Matth…    23 JR    G     6-3       185 Portlan… Jesuit HS     0.5 Pt…
 7 Fresno… Alec …    20 JR    G     6-4       190 Riversi… Junipero Ser… 3.0 Pt…
 8 ETSU B… Morre…    22 FR    G     6-2       210 Clevela… Cleveland HS  0.6 Pt…
 9 UConn … Andre…    20 FR    G     6-1       175 Glaston… St. Anthony … 0.8 Pt…
10 Bellar… Hunte…    23 <NA>  G     6-4       185 Mount W… Bullitt East… 0.8 Pt…
# ℹ 5,400 more rows
# ℹ 49 more variables: Rk.x <dbl>, G <dbl>, GS <dbl>, MP <dbl>, FG <dbl>,
#   FGA <dbl>, `FG%` <dbl>, `2P` <dbl>, `2PA` <dbl>, `2P%` <dbl>, `3P` <dbl>,
#   `3PA` <dbl>, `3P%` <dbl>, FT <dbl>, FTA <dbl>, `FT%` <dbl>, ORB <dbl>,
#   DRB <dbl>, TRB <dbl>, AST <dbl>, STL <dbl>, BLK <dbl>, TOV <dbl>, PF <dbl>,
#   PTS <dbl>, Rk.y <dbl>, PER <dbl>, `TS%` <dbl>, `eFG%` <dbl>, `3PAr` <dbl>,
#   FTr <dbl>, PProd <dbl>, `ORB%` <dbl>, `DRB%` <dbl>, `TRB%` <dbl>, …

And ine the COVID season, Weber State’s Jake Furgerson is your One Shot One Three True Shooting champion.

In most contests, like the batting title in Major League Baseball, there’s a minimum number of X to qualify. In baseball, it’s at bats. In basketball, it attempts. So let’s set a floor and see how it changes. What if we said you had to have played 100 minutes in a season? The top players in college basketball play more than 1000 minutes in a season. So 100 is not that much. Let’s try it and see.

players |>
  mutate(trueshooting = (PTS/(2*(FGA + (.44*FTA))))*100) |>
  arrange(desc(trueshooting)) |>
  filter(MP > 100)

# A tibble: 3,490 × 59
   Team    Player   `#` Class Pos   Height Weight Hometown `High School` Summary
   <chr>   <chr>  <dbl> <chr> <chr> <chr>   <dbl> <chr>    <chr>         <chr>  
 1 South … Natha…    14 JR    F     6-6       189 Murfree… Blackman HS   1.7 Pt…
 2 Idaho … Emmit…     4 JR    G     6-4       195 Lapwai,… Lapwai (ID)   3.8 Pt…
 3 Sacram… Spenc…    34 SR    F     6-6       195 Woodbri… Lodi (CA)     2.2 Pt…
 4 LSU Fi… Mwani…     0 FR    F     6-5       215 Las Veg… Bishop Gorma… 3.6 Pt…
 5 Sacred… Mike …     3 FR    G     6-0       170 Hicksvi… Holy Trinity… 8.0 Pt…
 6 Northe… Bryce…    21 FR    F     6-7       205 Allen, … Allen HS      2.9 Pt…
 7 Quinni… Seth …     4 SO    C     7-1       200 Warmins… Archbishop W… 8.0 Pt…
 8 Utah U… Lahat…    32 SO    F     6-10      243 Dakar, … Florida Prep  1.4 Pt…
 9 Colgat… Olive…    33 JR    G     6-2       190 Chapel … Oak Hill Aca… 3.7 Pt…
10 Akron … Enriq…    25 SO    F     6-7       205 Clevela… St Martin De… 7.9 Pt…
# ℹ 3,480 more rows
# ℹ 49 more variables: Rk.x <dbl>, G <dbl>, GS <dbl>, MP <dbl>, FG <dbl>,
#   FGA <dbl>, `FG%` <dbl>, `2P` <dbl>, `2PA` <dbl>, `2P%` <dbl>, `3P` <dbl>,
#   `3PA` <dbl>, `3P%` <dbl>, FT <dbl>, FTA <dbl>, `FT%` <dbl>, ORB <dbl>,
#   DRB <dbl>, TRB <dbl>, AST <dbl>, STL <dbl>, BLK <dbl>, TOV <dbl>, PF <dbl>,
#   PTS <dbl>, Rk.y <dbl>, PER <dbl>, `TS%` <dbl>, `eFG%` <dbl>, `3PAr` <dbl>,
#   FTr <dbl>, PProd <dbl>, `ORB%` <dbl>, `DRB%` <dbl>, `TRB%` <dbl>, …
…
