Sports Data Analysis and Visualization - 5 Mutating data
…
The code to calculate percent change is pretty simple. Remember, with summarize, we used n() to count things. With mutate, we use very similar syntax to calculate a new value using other values in our dataset. So in this case, we’re trying to do (new-old)/old, but we’re doing it with fields. If we look at what we got when we did head, you’ll see there’s `2018` as the new data, and we’ll use `2017` as the old data. So we’re looking at one year. Then, to help us, we’ll use arrange again to sort it, so we get the fastest growing school over one year.

attendance %>% mutate(
  change = (`2018` - `2017`)/`2017`
) 

# A tibble: 150 × 9
   Institution     Conference `2013` `2014` `2015` `2016` `2017` `2018`   change
   <chr>           <chr>       <dbl>  <dbl>  <dbl>  <dbl>  <dbl>  <dbl>    <dbl>
 1 Air Force       MWC        228562 168967 156158 177519 174924 166205 -0.0498 
 2 Akron           MAC        107101  55019 108588  62021 117416  92575 -0.212  
 3 Alabama         SEC        710538 710736 707786 712747 712053 710931 -0.00158
 4 Appalachian St. FBS Indep… 149366     NA     NA     NA     NA     NA NA      
 5 Appalachian St. Sun Belt       NA 138995 128755 156916 154722 131716 -0.149  
 6 Arizona         Pac-12     285713 354973 308355 338017 255791 318051  0.243  
 7 Arizona St.     Pac-12     501509 343073 368985 286417 359660 291091 -0.191  
 8 Arkansas        SEC        431174 399124 471279 487067 442569 367748 -0.169  
 9 Arkansas St.    Sun Belt   149477 149163 138043 136200 119538 119001 -0.00449
10 Army West Point FBS Indep… 169781 171310 185946 163267 185543 190156  0.0249 
# … with 140 more rows

What do we see right away? Do those numbers look like we expect them to? No. They’re a decimal expressed as a percentage. So let’s fix that by multiplying by 100.

attendance %>% mutate(
  change = ((`2018` - `2017`)/`2017`)*100
) 

# A tibble: 150 × 9
   Institution     Conference  `2013` `2014` `2015` `2016` `2017` `2018`  change
   <chr>           <chr>        <dbl>  <dbl>  <dbl>  <dbl>  <dbl>  <dbl>   <dbl>
 1 Air Force       MWC         228562 168967 156158 177519 174924 166205  -4.98 
 2 Akron           MAC         107101  55019 108588  62021 117416  92575 -21.2  
 3 Alabama         SEC         710538 710736 707786 712747 712053 710931  -0.158
 4 Appalachian St. FBS Indepe… 149366     NA     NA     NA     NA     NA  NA    
 5 Appalachian St. Sun Belt        NA 138995 128755 156916 154722 131716 -14.9  
 6 Arizona         Pac-12      285713 354973 308355 338017 255791 318051  24.3  
 7 Arizona St.     Pac-12      501509 343073 368985 286417 359660 291091 -19.1  
 8 Arkansas        SEC         431174 399124 471279 487067 442569 367748 -16.9  
 9 Arkansas St.    Sun Belt    149477 149163 138043 136200 119538 119001  -0.449
10 Army West Point FBS Indepe… 169781 171310 185946 163267 185543 190156   2.49 
# … with 140 more rows

Now, does this ordering do anything for us? No. Let’s fix that with arrange.

attendance %>% mutate(
  change = ((`2018` - `2017`)/`2017`)*100
) %>% arrange(desc(change))

# A tibble: 150 × 9
   Institution   Conference `2013` `2014` `2015` `2016` `2017` `2018` change
   <chr>         <chr>       <dbl>  <dbl>  <dbl>  <dbl>  <dbl>  <dbl>  <dbl>
 1 Ga. Southern  Sun Belt       NA 105510 124681 104095  61031 100814   65.2
 2 La.-Monroe    Sun Belt    85177  90540  58659  67057  49640  71048   43.1
 3 Louisiana     Sun Belt   129878 154652 129577 121346  78754 111303   41.3
 4 Hawaii        MWC        185931 192159 164031 170299 145463 205455   41.2
 5 Buffalo       MAC        136418 122418 110743 104957  80102 110280   37.7
 6 California    Pac-12     345303 286051 292797 279769 219290 300061   36.8
 7 UCF           AAC        252505 226869 180388 214814 257924 352148   36.5
 8 UTSA          C-USA      175282 165458 138048 138226 114104 148257   29.9
 9 Eastern Mich. MAC         20255  75127  29381 106064  73649  95632   29.8
10 Louisville    ACC            NA 317829 294413 324391 276957 351755   27.0
# … with 140 more rows
…
So what does True Shooting Percentage look like in code?

Let’s think about this differently. Who had the best true shooting season last year?

players %>%
  mutate(trueshooting = (PTS/(2*(FGA + (.44*FTA))))*100) %>%
  arrange(desc(trueshooting))

# A tibble: 5,452 × 58
   Team    Player   `#` Class Pos   Height Weight Hometown `High School` Summary
   <chr>   <chr>  <dbl> <chr> <chr> <chr>   <dbl> <chr>    <chr>         <chr>  
 1 Vander… Trace…    20 JR    G     6-2       170 Carmel,… Park Tudor HS 3.0 Pt…
 2 Stetso… Alex …    11 SO    G     6-2       195 Houston… New Hampton … 0.5 Pt…
 3 South … Mark …    11 SO    G     6-2       190 Hudson,… Hudson HS     0.6 Pt…
 4 Samfor… Jack …    11 FR    G     5-10      155 Homewoo… Homewood HS   2.0 Pt…
 5 Saint … Brand…    12 SO    G     6-3       180 Tremont… Wesclin HS    3.0 Pt…
 6 Provid… Tommy…    22 FR    G     6-2       175 Bingham… Seton Cathol… 0.6 Pt…
 7 Old Do… Quish…    24 SO    G     5-10      140 Hampton… Hampton HS    1.0 Pt…
 8 Oklaho… J.K. …    54 SR    G     6-1       185 Fairfax… Glencoe HS    1.0 Pt…
 9 Navy M… Chris…    10 FR    G     6-1       183 Bowie, … Annapolis HS  3.0 Pt…
10 Missou… Brook…    25 SO    G     6-0       187 St. Lou… De Smet HS    0.6 Pt…
# … with 5,442 more rows, and 48 more variables: Rk.x <dbl>, G <dbl>, GS <dbl>,
#   MP <dbl>, FG <dbl>, FGA <dbl>, `FG%` <dbl>, `2P` <dbl>, `2PA` <dbl>,
#   `2P%` <dbl>, `3P` <dbl>, `3PA` <dbl>, `3P%` <dbl>, FT <dbl>, FTA <dbl>,
#   `FT%` <dbl>, ORB <dbl>, DRB <dbl>, TRB <dbl>, AST <dbl>, STL <dbl>,
#   BLK <dbl>, TOV <dbl>, PF <dbl>, PTS <dbl>, Rk.y <dbl>, PER <dbl>,
#   `TS%` <dbl>, `eFG%` <dbl>, `3PAr` <dbl>, FTr <dbl>, PProd <dbl>,
#   `ORB%` <dbl>, `DRB%` <dbl>, `TRB%` <dbl>, `AST%` <dbl>, `STL%` <dbl>, …
…
