Sports Data Analysis and Visualization - 11 Residuals
…
We’ve seen this output before, but let’s review because if you are using scatterplots to make a point, you should do this. First, note the Min and Max residual at the top. A team has underperformed the model by nearly 50 points (!), and a team has overperformed it by 49 points (!!). The median residual, where half are above and half are below, is just slightly above the fit line. Close here is good.

Next: Look at the Adjusted R-squared value. What that says is that 64 percent of a team’s scoring output can be predicted by their net yards.

Last: Look at the p-value. We are looking for a p-value smaller than .05. At .05, we can say that our correlation didn’t happen at random. And, in this case, it REALLY didn’t happen at random. But if you know a little bit about football, it doesn’t surprise you that the more you outgain your opponent, the more you win by. It’s an intuitive result.

What we want to do now is look at those residuals. We want to add them to our individual game records. We can do that by creating two new fields – predicted and residuals – to our dataframe like this:

residualmodel <- residualmodel |> mutate(predicted = predict(fit), residuals = residuals(fit))

Now we can sort our data by those residuals. Sorting in descending order gives us the games where teams overperformed the model. To make it easier to read, I’m going to use select to give us just the columns we need to see.

residualmodel |> arrange(desc(residuals)) |> select(Team, Opponent, Result, differential, NetYards, predicted, residuals)

# A tibble: 1,100 × 7
   Team              Opponent   Result differential NetYards predicted residuals
   <chr>             <chr>      <chr>         <dbl>    <dbl>     <dbl>     <dbl>
 1 Arizona State     Arizona    W (70…           63      136     14.1       48.9
 2 Wisconsin         Wake Fore… W (42…           14     -252    -25.3       39.3
 3 Kentucky          Mississip… W (24…           22     -138    -13.7       35.7
 4 Mississippi State Vanderbilt W (24…            7     -274    -27.6       34.6
 5 Kansas State      Kansas     W (55…           41       61      6.51      34.5
 6 Boise State       Colorado … W (52…           31      -24     -2.13      33.1
 7 Army              Mercer     W (49…           46      139     14.4       31.6
 8 Notre Dame        South Flo… W (52…           52      198     20.4       31.6
 9 Texas             Oklahoma … W (41…            7     -243    -24.4       31.4
10 BYU               North Ala… W (66…           52      201     20.8       31.2
# ℹ 1,090 more rows
…
Our min and max go from -67 to positive 65

Our adjusted R-squared is … -0.0008935. Not much at all.

Our p-value is … 0.8307, which is more than than .05.

So what we can say about this model is that it’s statistically insignificant and utterly meaningless. Normally, we’d stop right here – why bother going forward with a predictive model that isn’t predictive? But let’s do it anyway.

penalties$predicted <- predict(pfit)
penalties$residuals <- residuals(pfit)

penalties |> arrange(desc(residuals)) |> select(Team, Opponent, Result, TotalPenaltyYards, residuals)

# A tibble: 1,100 × 5
   Team          Opponent         Result    TotalPenaltyYards residuals
   <chr>         <chr>            <chr>                 <dbl>     <dbl>
 1 Clemson       Georgia Tech     W (73-7)                 60      65.0
 2 Arizona State Arizona          W (70-7)                119      62.2
 3 Alabama       Kentucky         W (63-3)                 99      59.1
 4 Marshall      Eastern Kentucky W (59-0)                 55      58.0
 5 Texas         Texas-El Paso    W (59-3)                 85      55.1
 6 Pitt          Austin Peay      W (55-0)                 57      54.0
 7 Oklahoma      Kansas           W (62-9)                100      52.1
 8 Wake Forest   Campbell         W (66-14)                82      51.1
 9 BYU           North Alabama    W (66-14)                74      51.0
10 Notre Dame    South Florida    W (52-0)                 65      51.0
# ℹ 1,090 more rows
…
