Sports Data Analysis and Visualization - 16 Stacked bar charts
…
Now, the problem we have is that ggplot wants long data and this data is wide. So we need to use tidyr to make it long, just like we did in the transforming data chapter.

rebounds %>% 
  pivot_longer(
    cols=starts_with("Season"), 
    names_to="Type", 
    values_to="Rebounds")

# A tibble: 28 × 4
# Groups:   Conference [1]
   Conference Team     Type              Rebounds
   <chr>      <chr>    <chr>                <dbl>
 1 Big Ten    Illinois SeasonOffRebounds      300
 2 Big Ten    Illinois SeasonDefRebounds      764
 3 Big Ten    Indiana  SeasonOffRebounds      228
 4 Big Ten    Indiana  SeasonDefRebounds      770
 5 Big Ten    Iowa     SeasonOffRebounds      333
 6 Big Ten    Iowa     SeasonDefRebounds      742
 7 Big Ten    Maryland SeasonOffRebounds      256
 8 Big Ten    Maryland SeasonDefRebounds      767
 9 Big Ten    Michigan SeasonOffRebounds      265
10 Big Ten    Michigan SeasonDefRebounds      721
# … with 18 more rows
…
