12 Z-scores – Sports Data Analysis and Visualization
…
A way to read this – a team at zero is precisely average. The larger the positive number, the more exceptional they are. The larger the negative number, the more truly terrible they are.

So who are the best teams in the country?

teamzscore |> arrange(desc(TotalZscore))

# A tibble: 353 × 11
# Groups:   Conference [32]
   Conference Team        FGAvg ReboundAvg OppFGAvg OffRebAvg FGzscore RebZscore
   <chr>      <chr>       <dbl>      <dbl>    <dbl>     <dbl>    <dbl>     <dbl>
 1 Big West   UC-Irvine … 0.473       36.6    0.390      27.1    1.60     2.23  
 2 Big 12     Kansas Jay… 0.482       35.9    0.378      29.0    2.36     1.13  
 3 WCC        Gonzaga Bu… 0.517       37.4    0.424      28.2    1.73     1.90  
 4 Southland  Stephen F.… 0.490       34.2    0.427      26.6    1.76     1.05  
 5 Big Ten    Michigan S… 0.460       37.7    0.382      29.6    1.38     1.55  
 6 OVC        Murray Sta… 0.477       35.3    0.401      29.2    1.31     1.36  
 7 Summit     South Dako… 0.492       35.5    0.423      31.3    1.58     1.52  
 8 A-10       Dayton Fly… 0.525       32.5    0.413      29.0    2.59     0.0352
 9 A-10       Saint Loui… 0.457       37.4    0.403      30.5    0.598    2.21  
10 ACC        Louisville… 0.457       36.6    0.392      29.8    1.11     1.37  
# ℹ 343 more rows
# ℹ 3 more variables: OppZscore <dbl>, OppRebZScore <dbl>, TotalZscore <dbl>
…
