Scraping Sports Data With R – Matt Waite’s Collection of Miscellany
…
Note: Different HTML engines in browsers come up with different answers for the Xcode. Yours might look slightly different than mine and still work. Firefox and Chrome do this a lot.

Also note: Apostrophes around the Xpath, not quotes. Why? Because quotes can be a part of Xpaths.

Now finally: Turn this all into a table.

results |> 
  html_element(xpath = '/html/body/div/div[3]/div[2]/table') |> 
  html_table()

# A tibble: 136 × 10
      `` Name              G    TD    FG `1XP` `2XP` Safety Points `Points/G`
   <int> <chr>         <int> <int> <int> <int> <int>  <int>  <int>      <dbl>
 1     1 North Texas      14    85    12    77     4      0    631       45.1
 2     2 Notre Dame       12    70     5    63     2      1    504       42  
 3     3 Indiana          16    87    19    87     0      0    666       41.6
 4     4 Utah             13    72    11    68     1      1    537       41.3
 5     5 USF              13    67    18    62     2      2    526       40.5
 6     6 Tennessee        13    68    14    67     0      0    517       39.8
 7     7 Texas Tech       14    67    28    58     4      0    552       39.4
 8     8 Vanderbilt       13    66    13    63     1      0    500       38.5
 9     9 James Madison    14    68    14    65     2      0    519       37.1
10    10 Oregon           15    71    19    67     1      1    554       36.9
# ℹ 126 more rows
…
Analyze, visualize, profit.

We’ve done 1 and 2. If we now do 3, 4 is done for us because cfbstats gets it and 5 and 6 will be up to you.

How do we fix this? Because it’s just one column, let’s use the rename function from tidyr.

results |> 
  html_element(xpath = '/html/body/div/div[3]/div[2]/table') |> 
  html_table() |> 
  rename(
    Rank = 1
  )

# A tibble: 136 × 10
    Rank Name              G    TD    FG `1XP` `2XP` Safety Points `Points/G`
   <int> <chr>         <int> <int> <int> <int> <int>  <int>  <int>      <dbl>
 1     1 North Texas      14    85    12    77     4      0    631       45.1
 2     2 Notre Dame       12    70     5    63     2      1    504       42  
 3     3 Indiana          16    87    19    87     0      0    666       41.6
 4     4 Utah             13    72    11    68     1      1    537       41.3
 5     5 USF              13    67    18    62     2      2    526       40.5
 6     6 Tennessee        13    68    14    67     0      0    517       39.8
 7     7 Texas Tech       14    67    28    58     4      0    552       39.4
 8     8 Vanderbilt       13    66    13    63     1      0    500       38.5
 9     9 James Madison    14    68    14    65     2      0    519       37.1
10    10 Oregon           15    71    19    67     1      1    554       36.9
# ℹ 126 more rows
…
Scraping and storing it

Let’s fetch this page and store it so we’re not repeatedly requesting it.

mbb <- "https://www.sports-reference.com/cbb/seasons/men/2026-school-stats.html"

results <- mbb |> read_html()

Similar to the easy method, get the xpath for the table. The nice thing about Sports Reference: They use ids for their tables, which makes the xpath super simple.

results |> 
  html_element(xpath = '//*[@id="basic_school_stats"]') |> 
  html_table()

# A tibble: 402 × 38
   ``    ``    Overall Overall Overall Overall Overall Overall ``    Conf. Conf.
   <chr> <chr> <chr>   <chr>   <chr>   <chr>   <chr>   <chr>   <lgl> <chr> <chr>
 1 Rk    Scho… G       W       L       W-L%    SRS     SOS     NA    W     L    
 2 1     Abil… 27      13      14      .481    -5.89   -0.85   NA    5     9    
 3 2     Air … 27      3       24      .111    -13.87  4.69    NA    0     16   
 4 3     Akron 27      22      5       .815    8.80    -3.00   NA    13    1    
 5 4     Alab… 27      20      7       .741    23.11   14.37   NA    10    4    
 6 5     Alab… 28      16      12      .571    -13.09  -10.01  NA    9     6    
 7 6     Alab… 28      9       19      .321    -13.35  -7.13   NA    6     9    
 8 7     Alba… 28      10      18      .357    -13.51  -6.99   NA    6     7    
 9 8     Alco… 26      7       19      .269    -18.86  -4.63   NA    6     8    
10 9     Amer… 28      15      13      .536    -6.68   -5.72   NA    8     7    
# ℹ 392 more rows
# ℹ 27 more variables: `` <chr>, Home <chr>, Home <chr>, `` <chr>, Away <chr>,
#   Away <chr>, `` <chr>, Points <chr>, Points <chr>, `` <chr>, Totals <chr>,
#   Totals <chr>, Totals <chr>, Totals <chr>, Totals <chr>, Totals <chr>,
#   Totals <chr>, Totals <chr>, Totals <chr>, Totals <chr>, Totals <chr>,
#   Totals <chr>, Totals <chr>, Totals <chr>, Totals <chr>, Totals <chr>,
#   Totals <chr>
…
Fixing headers

First things first, we need to tell rvest to ignore the table headers. Then, we can bring some janitor functions to bear on this. Janitor will let us use a row of data to create headers. When we ignore the table headers, that row that has all of our column names in it will become row 2. Then, because Sports Reference is so human centered, we’ll use janitor’s clean_names() function to … clean up those names.

results |> 
  html_element(xpath = '//*[@id="basic_school_stats"]') |> 
  html_table(header = FALSE) |> 
  row_to_names(row_number = 2) |> 
  clean_names()

Warning: Row 2 does not provide unique names. Consider running clean_names()
after row_to_names().

# A tibble: 401 × 38
   rk    school      g     w     l     w_l_percent srs   sos   na    w_2   l_2  
   <chr> <chr>       <chr> <chr> <chr> <chr>       <chr> <chr> <lgl> <chr> <chr>
 1 1     Abilene Ch… 27    13    14    .481        -5.89 -0.85 NA    5     9    
 2 2     Air Force   27    3     24    .111        -13.… 4.69  NA    0     16   
 3 3     Akron       27    22    5     .815        8.80  -3.00 NA    13    1    
 4 4     Alabama     27    20    7     .741        23.11 14.37 NA    10    4    
 5 5     Alabama A&M 28    16    12    .571        -13.… -10.… NA    9     6    
 6 6     Alabama St… 28    9     19    .321        -13.… -7.13 NA    6     9    
 7 7     Albany (NY) 28    10    18    .357        -13.… -6.99 NA    6     7    
 8 8     Alcorn Sta… 26    7     19    .269        -18.… -4.63 NA    6     8    
 9 9     American    28    15    13    .536        -6.68 -5.72 NA    8     7    
10 10    Appalachia… 30    19    11    .633        -2.67 -5.28 NA    11    6    
# ℹ 391 more rows
# ℹ 27 more variables: na_2 <lgl>, w_3 <chr>, l_3 <chr>, na_3 <lgl>, w_4 <chr>,
#   l_4 <chr>, na_4 <lgl>, tm <chr>, opp <chr>, na_5 <lgl>, mp <chr>, fg <chr>,
#   fga <chr>, fg_percent <chr>, x3p <chr>, x3pa <chr>, x3p_percent <chr>,
#   ft <chr>, fta <chr>, ft_percent <chr>, orb <chr>, trb <chr>, ast <chr>,
#   stl <chr>, blk <chr>, tov <chr>, pf <chr>
…
Let’s do these one at a time.

We can remove empty rows and columns with the remove_empty function in janitor.

results |> 
  html_element(xpath = '//*[@id="basic_school_stats"]') |> 
  html_table(header = FALSE) |> 
  row_to_names(row_number = 2) |> 
  clean_names() |> 
  remove_empty(which = c("rows", "cols"))

Warning: Row 2 does not provide unique names. Consider running clean_names()
after row_to_names().

# A tibble: 401 × 33
   rk    school      g     w     l     w_l_percent srs   sos   w_2   l_2   w_3  
   <chr> <chr>       <chr> <chr> <chr> <chr>       <chr> <chr> <chr> <chr> <chr>
 1 1     Abilene Ch… 27    13    14    .481        -5.89 -0.85 5     9     9    
 2 2     Air Force   27    3     24    .111        -13.… 4.69  0     16    3    
 3 3     Akron       27    22    5     .815        8.80  -3.00 13    1     13   
 4 4     Alabama     27    20    7     .741        23.11 14.37 10    4     10   
 5 5     Alabama A&M 28    16    12    .571        -13.… -10.… 9     6     11   
 6 6     Alabama St… 28    9     19    .321        -13.… -7.13 6     9     5    
 7 7     Albany (NY) 28    10    18    .357        -13.… -6.99 6     7     5    
 8 8     Alcorn Sta… 26    7     19    .269        -18.… -4.63 6     8     4    
 9 9     American    28    15    13    .536        -6.68 -5.72 8     7     11   
10 10    Appalachia… 30    19    11    .633        -2.67 -5.28 11    6     11   
# ℹ 391 more rows
# ℹ 22 more variables: l_3 <chr>, w_4 <chr>, l_4 <chr>, tm <chr>, opp <chr>,
#   mp <chr>, fg <chr>, fga <chr>, fg_percent <chr>, x3p <chr>, x3pa <chr>,
#   x3p_percent <chr>, ft <chr>, fta <chr>, ft_percent <chr>, orb <chr>,
#   trb <chr>, ast <chr>, stl <chr>, blk <chr>, tov <chr>, pf <chr>
…
results |> 
  html_element(xpath = '//*[@id="basic_school_stats"]') |> 
  html_table(header = FALSE) |> 
  row_to_names(row_number = 2) |> 
  clean_names() |> 
  remove_empty(which = c("rows", "cols")) |> 
  filter(
    g != "Overall" & g != "G"
  )

Warning: Row 2 does not provide unique names. Consider running clean_names()
after row_to_names().

# A tibble: 365 × 33
   rk    school      g     w     l     w_l_percent srs   sos   w_2   l_2   w_3  
   <chr> <chr>       <chr> <chr> <chr> <chr>       <chr> <chr> <chr> <chr> <chr>
 1 1     Abilene Ch… 27    13    14    .481        -5.89 -0.85 5     9     9    
 2 2     Air Force   27    3     24    .111        -13.… 4.69  0     16    3    
 3 3     Akron       27    22    5     .815        8.80  -3.00 13    1     13   
 4 4     Alabama     27    20    7     .741        23.11 14.37 10    4     10   
 5 5     Alabama A&M 28    16    12    .571        -13.… -10.… 9     6     11   
 6 6     Alabama St… 28    9     19    .321        -13.… -7.13 6     9     5    
 7 7     Albany (NY) 28    10    18    .357        -13.… -6.99 6     7     5    
 8 8     Alcorn Sta… 26    7     19    .269        -18.… -4.63 6     8     4    
 9 9     American    28    15    13    .536        -6.68 -5.72 8     7     11   
10 10    Appalachia… 30    19    11    .633        -2.67 -5.28 11    6     11   
# ℹ 355 more rows
# ℹ 22 more variables: l_3 <chr>, w_4 <chr>, l_4 <chr>, tm <chr>, opp <chr>,
#   mp <chr>, fg <chr>, fga <chr>, fg_percent <chr>, x3p <chr>, x3pa <chr>,
#   x3p_percent <chr>, ft <chr>, fta <chr>, ft_percent <chr>, orb <chr>,
#   trb <chr>, ast <chr>, stl <chr>, blk <chr>, tov <chr>, pf <chr>
…
results |> 
  html_element(xpath = '//*[@id="basic_school_stats"]') |> 
  html_table(header = FALSE) |> 
  row_to_names(row_number = 2) |> 
  clean_names() |> 
  remove_empty(which = c("rows", "cols")) |> 
  filter(
    g != "Overall" & g != "G"
  ) |> 
  mutate_at(-2, as.numeric)

Warning: Row 2 does not provide unique names. Consider running clean_names()
after row_to_names().

# A tibble: 365 × 33
      rk school        g     w     l w_l_percent    srs    sos   w_2   l_2   w_3
   <dbl> <chr>     <dbl> <dbl> <dbl>       <dbl>  <dbl>  <dbl> <dbl> <dbl> <dbl>
 1     1 Abilene …    27    13    14       0.481  -5.89  -0.85     5     9     9
 2     2 Air Force    27     3    24       0.111 -13.9    4.69     0    16     3
 3     3 Akron        27    22     5       0.815   8.8   -3       13     1    13
 4     4 Alabama      27    20     7       0.741  23.1   14.4     10     4    10
 5     5 Alabama …    28    16    12       0.571 -13.1  -10.0      9     6    11
 6     6 Alabama …    28     9    19       0.321 -13.4   -7.13     6     9     5
 7     7 Albany (…    28    10    18       0.357 -13.5   -6.99     6     7     5
 8     8 Alcorn S…    26     7    19       0.269 -18.9   -4.63     6     8     4
 9     9 American     28    15    13       0.536  -6.68  -5.72     8     7    11
10    10 Appalach…    30    19    11       0.633  -2.67  -5.28    11     6    11
# ℹ 355 more rows
# ℹ 22 more variables: l_3 <dbl>, w_4 <dbl>, l_4 <dbl>, tm <dbl>, opp <dbl>,
#   mp <dbl>, fg <dbl>, fga <dbl>, fg_percent <dbl>, x3p <dbl>, x3pa <dbl>,
#   x3p_percent <dbl>, ft <dbl>, fta <dbl>, ft_percent <dbl>, orb <dbl>,
#   trb <dbl>, ast <dbl>, stl <dbl>, blk <dbl>, tov <dbl>, pf <dbl>
…
